[
  {
    "module": "module.cluster",
    "mode": "managed",
    "type": "aws_cloudwatch_log_group",
    "name": "test_log_group",
    "provider": "module.cluster.provider[\"registry.terraform.io/hashicorp/aws\"]",
    "instances": [
      {
        "schema_version": 0,
        "attributes": {
          "arn": "arn:aws:logs:eu-west-3:123456789012:log-group:eks-test_log_group",
          "id": "eks-test_log_group",
          "kms_key_id": "",
          "name": "eks-test_log_group",
          "name_prefix": null,
          "retention_in_days": 0,
          "tags": {
            "Name": "Value",
            "COGS": "OPEX",
            "Environment": "sym-dev4",
            "KubernetesCluster": "idem-test",
            "Owner": "cmbu"
          },
          "tags_all": {
            "Automation": "true",
            "COGS": "OPEX",
            "Environment": "sym-dev4",
            "KubernetesCluster": "idem-test",
            "Owner": "cmbu"
          }
        },
        "sensitive_attributes": [ ],
        "private": "123=="
      }
    ]
  },
  {
    "module": "module.cluster",
    "mode": "managed",
    "type": "aws_db_subnet_group",
    "name": "db-subnet-group",
    "provider": "module.cluster.provider[\"registry.terraform.io/hashicorp/aws\"]",
    "instances": [
      {
        "schema_version": 0,
        "attributes": {
          "arn": "arn:aws:rds:eu-west-3:123456789012:subgrp:db-subnet-group-idem-test",
          "description": "For Aurora rds",
          "id": "db-subnet-group-idem-test",
          "name": "db-subnet-group-idem-test",
          "name_prefix": null,
          "subnet_ids": [
            "subnet-123c",
            "subnet-123d",
            "subnet-123a"
          ],
          "tags": {
            "Automation": "true",
            "COGS": "OPEX",
            "Environment": "sym-dev4",
            "KubernetesCluster": "idem-test",
            "Name": "idem-test-db-subnet-group",
            "Owner": "cmbu"
          },
          "tags_all": {
            "Automation": "true",
            "COGS": "OPEX",
            "Environment": "sym-dev4",
            "KubernetesCluster": "idem-test",
            "Name": "idem-test-db-subnet-group",
            "Owner": "cmbu"
          }
        },
        "sensitive_attributes": [ ],
        "private": "123==",
        "dependencies": [
          "module.cluster.aws_subnet.cluster",
          "module.cluster.aws_vpc.cluster",
          "module.cluster.data.aws_availability_zones.available",
          "module.cluster.data.aws_subnets.pvt_subnets",
          "module.cluster.data.aws_vpc.vpc"
        ]
      }
    ]
  },
  {
    "module": "module.cluster",
    "mode": "managed",
    "type": "aws_eip",
    "name": "nat_eip",
    "provider": "module.cluster.provider[\"registry.terraform.io/hashicorp/aws\"]",
    "instances": [
      {
        "index_key": 0,
        "schema_version": 0,
        "attributes": {
          "address": null,
          "allocation_id": "eipalloc-0134ceb9112c887fd",
          "associate_with_private_ip": null,
          "association_id": "",
          "carrier_ip": "",
          "customer_owned_ip": "",
          "customer_owned_ipv4_pool": "",
          "domain": "vpc",
          "id": "eipalloc-0134ceb9112c887fd",
          "instance": "",
          "network_border_group": "eu-west-3",
          "network_interface": "",
          "private_dns": null,
          "private_ip": "",
          "public_dns": "ec2-15-236-223-139.eu-west-3.compute.amazonaws.com",
          "public_ip": "15.236.223.139",
          "public_ipv4_pool": "amazon",
          "tags": {
            "Automation": "true",
            "COGS": "OPEX",
            "Environment": "sym-dev4",
            "KubernetesCluster": "idem-test",
            "Name": "idem-test-natgw-eip-0",
            "Owner": "cmbu"
          },
          "tags_all": {
            "Automation": "true",
            "COGS": "OPEX",
            "Environment": "sym-dev4",
            "KubernetesCluster": "idem-test",
            "Name": "idem-test-natgw-eip-0",
            "Owner": "cmbu"
          },
          "timeouts": null,
          "vpc": true
        },
        "sensitive_attributes": [ ],
        "private": "abcd"
      },
      {
        "index_key": 1,
        "schema_version": 0,
        "attributes": {
          "address": null,
          "allocation_id": "eipalloc-001d4219447c325ca",
          "associate_with_private_ip": null,
          "association_id": "",
          "carrier_ip": "",
          "customer_owned_ip": "",
          "customer_owned_ipv4_pool": "",
          "domain": "vpc",
          "id": "eipalloc-001d4219447c325ca",
          "instance": "",
          "network_border_group": "eu-west-3",
          "network_interface": "",
          "private_dns": null,
          "private_ip": "",
          "public_dns": "ec2-13-37-173-220.eu-west-3.compute.amazonaws.com",
          "public_ip": "13.37.173.220",
          "public_ipv4_pool": "amazon",
          "tags": {
            "Automation": "true",
            "COGS": "OPEX",
            "Environment": "sym-dev4",
            "KubernetesCluster": "idem-test",
            "Name": "idem-test-natgw-eip-1",
            "Owner": "cmbu"
          },
          "tags_all": {
            "Automation": "true",
            "COGS": "OPEX",
            "Environment": "sym-dev4",
            "KubernetesCluster": "idem-test",
            "Name": "idem-test-natgw-eip-1",
            "Owner": "cmbu"
          },
          "timeouts": null,
          "vpc": true
        },
        "sensitive_attributes": [ ],
        "private": "abcd"
      },
      {
        "index_key": 2,
        "schema_version": 0,
        "attributes": {
          "address": null,
          "allocation_id": "eipalloc-12345",
          "associate_with_private_ip": null,
          "association_id": "",
          "carrier_ip": "",
          "customer_owned_ip": "",
          "customer_owned_ipv4_pool": "",
          "domain": "vpc",
          "id": "eipalloc-01319ee06efe14298",
          "instance": "",
          "network_border_group": "eu-west-3",
          "network_interface": "",
          "private_dns": null,
          "private_ip": "",
          "public_dns": "ec2-13-38-205-2.eu-west-3.compute.amazonaws.com",
          "public_ip": "13.38.205.2",
          "public_ipv4_pool": "amazon",
          "tags": {
            "Automation": "true",
            "COGS": "OPEX",
            "Environment": "sym-dev4",
            "KubernetesCluster": "idem-test",
            "Name": "idem-test-natgw-eip-2",
            "Owner": "cmbu"
          },
          "tags_all": {
            "Automation": "true",
            "COGS": "OPEX",
            "Environment": "sym-dev4",
            "KubernetesCluster": "idem-test",
            "Name": "idem-test-natgw-eip-2",
            "Owner": "cmbu"
          },
          "timeouts": null,
          "vpc": true
        },
        "sensitive_attributes": [ ],
        "private": "abcd"
      }
    ]
  },
  {
    "module": "module.infra",
    "mode": "managed",
    "type": "aws_elasticache_subnet_group",
    "name": "default",
    "provider": "module.cluster.provider[\"registry.terraform.io/hashicorp/aws\"]",
    "instances": [
      {
        "schema_version": 0,
        "attributes": {
          "arn": "arn:aws:elasticache:eu-west-3:123456789012:subnetgroup:elasticache-subnet-group-idem-test",
          "description": "For elastcache redis cluster",
          "id": "elasticache-subnet-group-idem-test",
          "name": "elasticache-subnet-group-idem-test",
          "subnet_ids": [
            "subnet-123a",
            "subnet-123b",
            "subnet-123c"
          ],
          "tags": null,
          "tags_all": { }
        },
        "sensitive_attributes": [ ],
        "private": "abc==",
        "dependencies": [
          "module.cluster.aws_subnet.cluster",
          "module.cluster.aws_vpc.cluster",
          "module.cluster.data.aws_availability_zones.available",
          "module.cluster.data.aws_subnets.pvt_subnets",
          "module.cluster.data.aws_vpc.vpc"
        ]
      }
    ]
  }
]
