{
  "version": 3,
  "terraform_version": "0.11.15",
  "serial": 6,
  "lineage": "cfda22ba-c7a3-4413-a2f1-a94584c678b0",
  "modules": [
    {
      "path": [
        "root"
      ],
      "outputs": { },
      "resources": {
        "aws_s3_bucket.athena_results": {
          "type": "aws_s3_bucket",
          "depends_on": [
            "data.aws_caller_identity.current",
            "data.aws_region.current"
          ],
          "primary": {
            "id": "aws-athena-query-results-271871119518-us-east-1",
            "attributes": {
              "acceleration_status": "",
              "acl": "private",
              "arn": "arn:aws:s3:::aws-athena-query-results-271871119518-us-east-1",
              "bucket": "aws-athena-query-results-271871119518-us-east-1",
              "bucket_domain_name": "aws-athena-query-results-271871119518-us-east-1.s3.amazonaws.com",
              "bucket_regional_domain_name": "aws-athena-query-results-271871119518-us-east-1.s3.amazonaws.com",
              "cors_rule.#": "0",
              "force_destroy": "false",
              "grant.#": "0",
              "hosted_zone_id": "Z3AQBSTGFYJSTF",
              "id": "aws-athena-query-results-271871119518-us-east-1",
              "lifecycle_rule.#": "1",
              "lifecycle_rule.0.abort_incomplete_multipart_upload_days": "0",
              "lifecycle_rule.0.enabled": "true",
              "lifecycle_rule.0.expiration.#": "1",
              "lifecycle_rule.0.expiration.0.date": "",
              "lifecycle_rule.0.expiration.0.days": "1",
              "lifecycle_rule.0.expiration.0.expired_object_delete_marker": "false",
              "lifecycle_rule.0.id": "tf-s3-lifecycle-20220516140542829500000001",
              "lifecycle_rule.0.noncurrent_version_expiration.#": "0",
              "lifecycle_rule.0.noncurrent_version_transition.#": "0",
              "lifecycle_rule.0.prefix": "",
              "lifecycle_rule.0.tags.%": "0",
              "lifecycle_rule.0.transition.#": "0",
              "logging.#": "0",
              "object_lock_configuration.#": "0",
              "region": "us-east-1",
              "replication_configuration.#": "0",
              "request_payer": "BucketOwner",
              "server_side_encryption_configuration.#": "1",
              "server_side_encryption_configuration.0.rule.#": "1",
              "server_side_encryption_configuration.0.rule.0.apply_server_side_encryption_by_default.#": "1",
              "server_side_encryption_configuration.0.rule.0.apply_server_side_encryption_by_default.0.kms_master_key_id": "",
              "server_side_encryption_configuration.0.rule.0.apply_server_side_encryption_by_default.0.sse_algorithm": "AES256",
              "tags.%": "8",
              "tags.Name": "aws-athena-query-results-271871119518-us-east-1",
              "tags.cht_encrypted": "true",
              "tags.cht_env": "dev",
              "tags.cht_function": "kuberenetes",
              "tags.cht_management": "terraform",
              "tags.cht_owner": "Jeff B",
              "tags.cht_subfunction": "kuberenetes",
              "tags.cht_tower": "PlatformNG",
              "versioning.#": "1",
              "versioning.0.enabled": "false",
              "versioning.0.mfa_delete": "false",
              "website.#": "0"
            },
            "meta": { },
            "tainted": false
          },
          "deposed": [ ],
          "provider": "provider.aws"
        }
      }
    }
  ]
}
